1 10 20
100 200 125
201 210 89
900 1000 174
218793 468422 449
682403 886108 525
428392 430563 312
23144 750228 509
193375 229852 386
475911 713179 509
271102 540897 470
850512 932063 476
596385 712004 509
389490 631182 509
397025 718159 509
1000 311002 443
159387 432084 449
74414 291997 443
52493 622995 470
16195 543156 470
52083 380853 443
251064 392340 441
362999 829388 509
548532 752730 509
572687 885788 525
356612 611920 470
212091 270348 443
600166 773615 509
239530 626919 509
207402 245807 443
245770 698586 509
586421 726351 509
121376 302269 443
294952 683827 509
488376 776295 509
975860 989278 427
419915 499586 444
51109 696484 509
116929 883511 525
579307 756797 509
230616 953770 525
74559 957395 525
54312 832072 509
192423 267053 443
13010 131594 354
648575 730712 504
329315 586988 470
124625 753849 509
222430 665724 509
132350 699160 509
254591 853716 525
333264 940166 525
323158 725825 509
125823 692030 509
342039 808749 509
398658 799950 509
735911 997469 525
143570 161345 383
277981 442722 449
190099 615643 470
193603 904508 525
824324 856162 525
274928 742305 509
628924 753093 504
168247 498745 449
89725 258607 443
130442 474298 449
47316 618409 470
685781 741490 504
307974 908898 525
129434 716408 509
612457 918588 525
397059 598109 470
112311 447423 449
495856 708961 509
334370 362889 441
107678 340493 443
577195 702284 509
207191 469190 449
340068 381032 441
585119 587837 359
216929 853078 525
194339 727119 509
739161 993598 525
408374 508956 449
226034 420856 449
481032 581248 470
575977 660483 509
560444 620742 447
119884 587176 470
700882 853226 525
141035 563904 470
72121 170621 383
479016 482017 413
107202 621835 470
496156 985421 525
224816 782347 509
230274 872804 525
133501 663630 509
2989 432231 449
35912 988017 525
47771 558808 470
425413 779569 509
282423 929079 525
416713 761134 509
96592 789640 509
453204 542740 470
688992 746742 504
350274 872947 525
716275 757241 424
264079 472256 449
315863 729301 509
580267 863097 525
24673 51913 324
89491 584843 470
709800 876355 525
550957 567944 421
48567 390400 443
320810 932259 525
529622 801155 509
330774 929538 525
677978 756683 504
478790 821153 509
293999 392773 441
101254 357621 443
553261 849960 525
168241 306214 443
44499 448484 449
281806 298933 389
607351 854396 525
212338 245631 443
880186 996308 507
319466 605523 470
66776 751266 509
76422 125433 354
166458 683140 509
148605 808880 509
110342 870187 525
643794 779970 504
73945 80701 351
103532 424357 449
325792 666113 509
167744 744576 509
234222 779998 509
359260 768569 509
394870 548723 470
351298 667832 509
432785 688214 509
227862 632718 509
227827 804537 509
353647 963738 525
166060 836697 509
22515 945724 525
8063 531674 470
97475 295082 443
49751 379201 443
802274 988558 525
367553 874712 525
685924 721751 504
15402 565744 470
341515 403493 441
453976 900712 525
274707 795907 509
293992 810609 509
179282 238614 443
78349 241329 443
583403 760336 509
61614 264517 443
11552 383473 443
217615 830447 509
205180 436940 449
814908 833738 450
27744 682937 509
608428 750080 509
734605 780857 468
297874 728520 509
359060 588604 470
874563 959894 507
780778 792852 437
269675 522414 470
275269 520224 470
379425 935509 525
359593 631726 509
33318 39548 324
883354 955357 507
427692 685834 509
57650 219037 386
692215 919086 525
880578 980970 507
358370 880034 525
34019 367430 443
358241 533476 470
5204 821847 509
255013 495817 449
244104 660403 509
253547 378615 441
196262 555101 470
920666 953629 507
291050 629858 509
409464 952014 525
707574 844618 525
295331 720989 509
561682 903431 525
426395 944790 525
